<svg width="156" height="53" viewBox="0 0 156 53" fill="none" xmlns="http://www.w3.org/2000/svg">
<path d="M57.9981 20.4336H52.8681V33.0336H55.5681V28.8036H57.9981C58.8981 28.8036 59.6901 28.6416 60.3741 28.2996C61.0581 27.9576 61.5981 27.4716 61.9761 26.8416C62.3541 26.2116 62.5521 25.4736 62.5521 24.6276C62.5521 23.7996 62.3541 23.0616 61.9761 22.4136C61.5981 21.7836 61.0581 21.2976 60.3741 20.9556C59.6901 20.6136 58.8981 20.4336 57.9981 20.4336ZM55.5681 26.5536V22.6836H57.7461C58.3761 22.6836 58.8801 22.8636 59.2581 23.2056C59.6181 23.5656 59.8161 24.0336 59.8161 24.6276C59.8161 25.2216 59.6181 25.6896 59.2581 26.0316C58.8801 26.3916 58.3761 26.5536 57.7461 26.5536H55.5681ZM69.5014 23.7816H69.0694C68.3854 23.7816 67.8274 23.9076 67.4314 24.1416C67.0174 24.3756 66.6754 24.7176 66.4054 25.1676L66.1714 23.7816H63.8674V33.0336H66.4054V28.4976C66.4054 27.7596 66.5674 27.1656 66.9094 26.7336C67.2334 26.3016 67.7734 26.0856 68.4934 26.0856H69.5014V23.7816ZM72.9569 20.3436C72.6689 20.0736 72.3269 19.9296 71.9129 19.9296C71.4809 19.9296 71.1389 20.0736 70.8509 20.3436C70.5629 20.6136 70.4369 20.9556 70.4369 21.3516C70.4369 21.7656 70.5629 22.1076 70.8509 22.3776C71.1389 22.6656 71.4809 22.7916 71.9129 22.7916C72.3269 22.7916 72.6689 22.6656 72.9569 22.3776C73.2269 22.1076 73.3709 21.7656 73.3709 21.3516C73.3709 20.9556 73.2269 20.6136 72.9569 20.3436ZM70.6349 23.7816V33.0336H73.1729V23.7816H70.6349ZM88.4956 24.6636C87.8656 24.0156 87.0556 23.6736 86.0656 23.6736C85.3636 23.6736 84.7336 23.8176 84.1936 24.0876C83.6536 24.3576 83.2036 24.7356 82.8796 25.2396C82.3576 24.1956 81.4396 23.6736 80.1256 23.6736C79.4776 23.6916 78.9376 23.7996 78.5056 24.0156C78.0736 24.2316 77.6956 24.5376 77.3896 24.9336L77.1556 23.7816H74.9416V33.0516H77.4796V27.9936C77.4796 27.3096 77.6416 26.7696 77.9656 26.3736C78.2896 25.9776 78.7396 25.7616 79.2976 25.7616C80.3776 25.7616 80.9176 26.4636 80.9176 27.8676V33.0516H83.4556V27.9756C83.4556 27.2916 83.6176 26.7516 83.9596 26.3556C84.2836 25.9596 84.7336 25.7616 85.2916 25.7616C86.3536 25.7616 86.8936 26.4636 86.8936 27.8676V33.0516H89.4316V27.9576C89.4316 26.4276 89.1076 25.3296 88.4956 24.6636ZM91.2416 25.9236C90.8456 26.6436 90.6656 27.4716 90.6656 28.4256C90.6656 29.3796 90.8636 30.2076 91.2596 30.9276C91.6556 31.6476 92.2316 32.1876 92.9876 32.5656C93.7436 32.9616 94.6256 33.1416 95.6696 33.1416C96.4616 33.1416 97.1636 33.0156 97.7756 32.7276C98.3876 32.4396 98.8736 32.0616 99.2516 31.5576C99.6116 31.0716 99.8456 30.5136 99.9536 29.9016H97.4516C97.3436 30.3336 97.1096 30.6756 96.7676 30.8916C96.4256 31.1076 95.9936 31.2156 95.4896 31.2156C94.8416 31.2156 94.3196 31.0356 93.9596 30.6396C93.5816 30.2616 93.3656 29.7396 93.3116 29.0556V28.9836H100.026C100.062 28.7316 100.098 28.4436 100.098 28.1196C100.08 27.2196 99.8636 26.4456 99.4676 25.7796C99.0716 25.1136 98.5136 24.5916 97.7936 24.2316C97.0736 23.8716 96.2636 23.6736 95.3276 23.6736C94.3916 23.6736 93.5816 23.8716 92.8796 24.2676C92.1776 24.6636 91.6376 25.2036 91.2416 25.9236ZM97.5596 27.3276H93.3656C93.4376 26.7876 93.6536 26.3736 94.0316 26.0496C94.4096 25.7256 94.8776 25.5636 95.4356 25.5636C96.0116 25.5636 96.4796 25.7256 96.8576 26.0316C97.2356 26.3376 97.4696 26.7696 97.5596 27.3276ZM111.115 20.4336H106.291V33.0336H107.857V28.1916H111.079L113.689 33.0336H115.453L112.627 27.8856C113.437 27.6696 114.085 27.2376 114.571 26.5896C115.057 25.9416 115.309 25.1856 115.309 24.3036C115.309 23.5296 115.129 22.8456 114.787 22.2696C114.427 21.6936 113.941 21.2436 113.311 20.9196C112.663 20.5956 111.943 20.4336 111.115 20.4336ZM107.857 26.7516V21.8736H111.007C111.817 21.8736 112.465 22.1076 112.969 22.5396C113.455 22.9896 113.707 23.5836 113.707 24.3036C113.707 25.0596 113.455 25.6536 112.969 26.0856C112.465 26.5356 111.817 26.7516 110.989 26.7516H107.857ZM125.279 31.6836H124.829C124.415 31.6836 124.217 31.4676 124.217 31.0176V27.0576C124.217 25.9956 123.893 25.1856 123.245 24.6096C122.597 24.0336 121.697 23.7456 120.527 23.7456C119.411 23.7456 118.511 23.9976 117.827 24.5016C117.143 25.0056 116.747 25.7076 116.639 26.6076H118.115C118.205 26.1396 118.457 25.7796 118.871 25.4916C119.285 25.2036 119.807 25.0596 120.455 25.0596C121.175 25.0596 121.733 25.2396 122.129 25.5636C122.525 25.9056 122.741 26.3736 122.741 26.9676V27.5976H120.041C118.835 27.5976 117.917 27.8496 117.287 28.3356C116.657 28.8396 116.351 29.5416 116.351 30.4596C116.351 31.2876 116.657 31.9536 117.269 32.4216C117.881 32.9076 118.709 33.1416 119.735 33.1416C121.067 33.1416 122.093 32.6376 122.813 31.6116C122.813 32.0796 122.957 32.4396 123.209 32.6736C123.461 32.9256 123.875 33.0336 124.469 33.0336H125.279V31.6836ZM122.741 28.8396V29.2896C122.741 30.0816 122.471 30.7116 121.967 31.1796C121.445 31.6476 120.743 31.8816 119.843 31.8816C119.231 31.8816 118.745 31.7556 118.385 31.4676C118.025 31.1976 117.845 30.8376 117.845 30.3696C117.845 29.3616 118.529 28.8396 119.897 28.8396H122.741ZM127.025 25.2036V30.6396C127.025 31.4676 127.205 32.0796 127.565 32.4576C127.925 32.8536 128.555 33.0336 129.419 33.0336H131.111V31.6836H129.509C129.131 31.6836 128.861 31.6116 128.717 31.4496C128.573 31.2876 128.501 31.0176 128.501 30.6216V25.2036H130.823V23.8536H128.501V21.2796H127.025V23.8536H125.369V25.2036H127.025ZM133.583 20.5776C133.403 20.3976 133.169 20.3076 132.899 20.3076C132.611 20.3076 132.395 20.3976 132.215 20.5776C132.035 20.7576 131.945 20.9916 131.945 21.2616C131.945 21.5496 132.035 21.7656 132.215 21.9456C132.395 22.1256 132.611 22.2156 132.899 22.2156C133.169 22.2156 133.403 22.1256 133.583 21.9456C133.763 21.7656 133.853 21.5496 133.853 21.2616C133.853 20.9916 133.763 20.7576 133.583 20.5776ZM132.161 23.8536V33.0336H133.637V23.8536H132.161ZM142.841 24.7536C142.157 24.0876 141.275 23.7456 140.159 23.7456C138.827 23.7456 137.819 24.1956 137.135 25.0956L136.937 23.8536H135.659V33.0336H137.135V28.4436C137.135 27.4176 137.369 26.6076 137.873 25.9956C138.359 25.4016 139.043 25.0956 139.907 25.0956C140.699 25.0956 141.311 25.3476 141.743 25.8516C142.175 26.3556 142.391 27.0756 142.391 28.0116V33.0336H143.867V27.9216C143.867 26.4816 143.525 25.4376 142.841 24.7536ZM154.461 23.8536H153.183L152.985 25.4376C152.679 24.8976 152.265 24.4836 151.743 24.1956C151.203 23.9076 150.573 23.7456 149.835 23.7456C148.989 23.7456 148.233 23.9436 147.567 24.3396C146.883 24.7356 146.361 25.2936 145.983 25.9956C145.605 26.7156 145.425 27.5256 145.425 28.4436C145.425 29.4156 145.605 30.2616 145.983 30.9636C146.361 31.6836 146.883 32.2236 147.549 32.5836C148.215 32.9616 148.971 33.1416 149.835 33.1416C151.275 33.1416 152.319 32.5836 152.985 31.4496V32.5296C152.985 34.4736 151.995 35.4276 150.015 35.4276C149.241 35.4276 148.611 35.2836 148.125 34.9596C147.621 34.6536 147.315 34.2036 147.207 33.6276H145.695C145.803 34.6356 146.235 35.3916 146.991 35.9316C147.747 36.4716 148.719 36.7416 149.907 36.7416C152.931 36.7416 154.461 35.3556 154.461 32.5836V23.8536ZM151.545 31.4136C151.077 31.7016 150.555 31.8276 149.979 31.8276C149.061 31.8276 148.323 31.5216 147.765 30.8916C147.207 30.2616 146.937 29.4516 146.937 28.4436C146.937 27.4536 147.207 26.6436 147.765 26.0136C148.323 25.3836 149.061 25.0596 149.979 25.0596C150.555 25.0596 151.077 25.2036 151.545 25.4916C152.013 25.7796 152.373 26.1936 152.625 26.7156C152.877 27.2376 153.003 27.8316 153.003 28.4796C153.003 29.1276 152.877 29.7216 152.625 30.2256C152.373 30.7296 152.013 31.1256 151.545 31.4136Z" fill="#15062D"/>
<path d="M25.9224 40.9348L13.4069 33.7831L17.5568 31.4117L15.5066 30.2492L9.32227 33.7831L25.9224 43.2689L42.5225 33.7831L36.3382 30.2492L34.288 31.4117L38.4379 33.7831L25.9224 40.9348Z" fill="#FF497A"/>
<path fill-rule="evenodd" clip-rule="evenodd" d="M37.2567 22.2118L25.1515 34.5091L18.2216 27.4692L20.6958 25.0337L25.1515 29.5601L34.7825 19.7762L37.2567 22.2118Z" fill="#FF497A"/>
<path fill-rule="evenodd" clip-rule="evenodd" d="M37.2567 11.9591L25.1515 24.2564L18.2216 17.2165L20.6958 14.781L25.1515 19.3074L34.7825 9.52356L37.2567 11.9591Z" fill="#FF497A"/>
<path fill-rule="evenodd" clip-rule="evenodd" d="M37.8299 22.2073L25.1515 35.0868L17.6484 27.4647L20.7003 24.4605L25.1515 28.9823L34.778 19.2031L37.8299 22.2073ZM34.7825 19.7762L37.2567 22.2118L25.1515 34.5091L18.2216 27.4692L20.6958 25.0337L25.1515 29.5601L34.7825 19.7762ZM37.8299 11.9546L25.1515 24.8342L17.6484 17.212L20.7003 14.2078L25.1515 18.7296L34.778 8.95038L37.8299 11.9546ZM25.1515 19.3074L20.6958 14.781L18.2216 17.2165L25.1515 24.2564L37.2567 11.9591L34.7825 9.52356L25.1515 19.3074Z" fill="#FF497A"/>
</svg>
